{"docs":[{"id":572458,"poster":{"url":"https://avatars.mds.yandex.net/get-kinopoisk-image/1599028/d09a6b37-f980-4e6a-8662-c2780803c18b/orig","previewUrl":"https://avatars.mds.yandex.net/get-kinopoisk-image/1599028/d09a6b37-f980-4e6a-8662-c2780803c18b/x1000"}},{"id":924347,"poster":{"url":"https://avatars.mds.yandex.net/get-kinopoisk-image/1599028/f1293324-e2e2-401a-b51d-108454f22e24/orig","previewUrl":"https://avatars.mds.yandex.net/get-kinopoisk-image/1599028/f1293324-e2e2-401a-b51d-108454f22e24/x1000"}},{"id":1398953,"poster":{"url":"https://avatars.mds.yandex.net/get-kinopoisk-image/4774061/d5ff8182-8958-4f02-9679-426fbc2367c5/orig","previewUrl":"https://avatars.mds.yandex.net/get-kinopoisk-image/4774061/d5ff8182-8958-4f02-9679-426fbc2367c5/x1000"}},{"id":4412344,"poster":{"url":"https://avatars.mds.yandex.net/get-kinopoisk-image/10893610/fdbb3c4b-826a-4111-addc-17c581a531e1/orig","previewUrl":"https://avatars.mds.yandex.net/get-kinopoisk-image/10893610/fdbb3c4b-826a-4111-addc-17c581a531e1/x1000"}},{"id":784289,"poster":{"url":"https://st.kp.yandex.net/images/film_big/784289.jpg","previewUrl":"https://st.kp.yandex.net/images/film_iphone/iphone360_784289.jpg"}},{"id":477557,"poster":{"url":"https://st.kp.yandex.net/images/film_big/477557.jpg","previewUrl":"https://st.kp.yandex.net/images/film_iphone/iphone360_477557.jpg"}},{"id":1303536,"poster":{"url":"https://avatars.mds.yandex.net/get-kinopoisk-image/1599028/4f308af4-ffcb-4e2b-a70b-d213e666ff41/orig","previewUrl":"https://avatars.mds.yandex.net/get-kinopoisk-image/1599028/4f308af4-ffcb-4e2b-a70b-d213e666ff41/x1000"}},{"id":25792,"poster":{"url":"https://st.kp.yandex.net/images/film_big/25792.jpg","previewUrl":"https://st.kp.yandex.net/images/film_iphone/iphone360_25792.jpg"}},{"id":1045092,"poster":{"url":"https://st.kp.yandex.net/images/film_big/1045092.jpg","previewUrl":"https://st.kp.yandex.net/images/film_iphone/iphone360_1045092.jpg"}},{"id":5237671,"poster":{"url":"https://avatars.mds.yandex.net/get-kinopoisk-image/10671298/6d13d38a-b847-4c4e-896e-9bbf486e6b0b/orig","previewUrl":"https://avatars.mds.yandex.net/get-kinopoisk-image/10671298/6d13d38a-b847-4c4e-896e-9bbf486e6b0b/x1000"}},{"id":258050,"poster":{"url":"https://st.kp.yandex.net/images/film_big/258050.jpg","previewUrl":"https://st.kp.yandex.net/images/film_iphone/iphone360_258050.jpg"}},{"id":425336,"poster":{"url":"https://st.kp.yandex.net/images/film_big/425336.jpg","previewUrl":"https://st.kp.yandex.net/images/film_iphone/iphone360_425336.jpg"}},{"id":5053741,"poster":{"url":"https://avatars.mds.yandex.net/get-kinopoisk-image/4483445/edb23a6f-1edb-4239-96ff-17403a438e7f/orig","previewUrl":"https://avatars.mds.yandex.net/get-kinopoisk-image/4483445/edb23a6f-1edb-4239-96ff-17403a438e7f/x1000"}},{"id":346578,"poster":{"url":"https://st.kp.yandex.net/images/film_big/346578.jpg","previewUrl":"https://st.kp.yandex.net/images/film_iphone/iphone360_346578.jpg"}},{"id":1007942,"poster":null}],"total":46,"limit":15,"page":1,"pages":4}